507_project/picorv32/tb_picorv32_vec_program_top.vcd
$date
	Wed May 06 19:10:09 2026
$end
$version
	Icarus Verilog
$end
$timescale
	1ps
$end
$scope module tb_picorv32_vec_program_top $end
$var wire 1 ! trap $end
$var wire 32 " test_result [31:0] $end
$var wire 1 # test_done $end
$var reg 1 $ clk $end
$var reg 1 % resetn $end
$scope module uut $end
$var wire 1 $ clk $end
$var wire 32 & irq [31:0] $end
$var wire 1 % resetn $end
$var wire 1 ! trap $end
$var wire 1 ' trace_valid $end
$var wire 36 ( trace_data [35:0] $end
$var wire 1 ) pcpi_wr $end
$var wire 1 * pcpi_wait $end
$var wire 1 + pcpi_valid $end
$var wire 32 , pcpi_rs2 [31:0] $end
$var wire 32 - pcpi_rs1 [31:0] $end
$var wire 1 . pcpi_ready $end
$var wire 32 / pcpi_rd [31:0] $end
$var wire 32 0 pcpi_insn [31:0] $end
$var wire 4 1 mem_wstrb [3:0] $end
$var wire 32 2 mem_wdata [31:0] $end
$var wire 1 3 mem_valid $end
$var wire 4 4 mem_la_wstrb [3:0] $end
$var wire 1 5 mem_la_write $end
$var wire 32 6 mem_la_wdata [31:0] $end
$var wire 1 7 mem_la_read $end
$var wire 32 8 mem_la_addr [31:0] $end
$var wire 1 9 mem_instr $end
$var wire 32 : mem_addr [31:0] $end
$var wire 32 ; eoi [31:0] $end
$var parameter 32 < INST_ADDI_X1 $end
$var parameter 32 = INST_ADDI_X2 $end
$var parameter 32 > INST_LOOP $end
$var parameter 32 ? INST_LUI_X1 $end
$var parameter 32 @ INST_LUI_X2 $end
$var parameter 32 A INST_SW_X3_RESULT $end
$var parameter 32 B INST_VADD8_X3_X1_X2 $end
$var parameter 12 C STORE_IMM $end
$var reg 32 D mem_rdata [31:0] $end
$var reg 1 E mem_ready $end
$var reg 1 # test_done $end
$var reg 32 F test_result [31:0] $end
$scope module cpu $end
$var wire 1 $ clk $end
$var wire 32 G dbg_mem_addr [31:0] $end
$var wire 1 H dbg_mem_instr $end
$var wire 32 I dbg_mem_rdata [31:0] $end
$var wire 1 J dbg_mem_ready $end
$var wire 1 K dbg_mem_valid $end
$var wire 32 L dbg_mem_wdata [31:0] $end
$var wire 4 M dbg_mem_wstrb [3:0] $end
$var wire 1 N instr_trap $end
$var wire 32 O irq [31:0] $end
$var wire 1 P launch_next_insn $end
$var wire 1 Q mem_done $end
$var wire 1 R mem_la_firstword $end
$var wire 1 S mem_la_firstword_xfer $end
$var wire 1 7 mem_la_read $end
$var wire 1 T mem_la_use_prefetched_high_word $end
$var wire 1 5 mem_la_write $end
$var wire 32 U mem_rdata [31:0] $end
$var wire 32 V mem_rdata_latched [31:0] $end
$var wire 1 E mem_ready $end
$var wire 1 W mem_xfer $end
$var wire 32 X pcpi_div_rd [31:0] $end
$var wire 1 Y pcpi_div_ready $end
$var wire 1 Z pcpi_div_wait $end
$var wire 1 [ pcpi_div_wr $end
$var wire 32 \ pcpi_mul_rd [31:0] $end
$var wire 1 ] pcpi_mul_ready $end
$var wire 1 ^ pcpi_mul_wait $end
$var wire 1 _ pcpi_mul_wr $end
$var wire 32 ` pcpi_rs1 [31:0] $end
$var wire 1 % resetn $end
$var wire 1 ) pcpi_wr $end
$var wire 1 * pcpi_wait $end
$var wire 32 a pcpi_rs2 [31:0] $end
$var wire 1 . pcpi_ready $end
$var wire 32 b pcpi_rd [31:0] $end
$var wire 32 c next_pc [31:0] $end
$var wire 32 d mem_rdata_latched_noshuffle [31:0] $end
$var wire 32 e mem_la_addr [31:0] $end
$var wire 1 f mem_busy $end
$var wire 1 g is_rdcycle_rdcycleh_rdinstr_rdinstrh $end
$var parameter 1 h BARREL_SHIFTER $end
$var parameter 1 i CATCH_ILLINSN $end
$var parameter 1 j CATCH_MISALIGN $end
$var parameter 1 k COMPRESSED_ISA $end
$var parameter 1 l ENABLE_COUNTERS $end
$var parameter 1 m ENABLE_COUNTERS64 $end
$var parameter 1 n ENABLE_DIV $end
$var parameter 1 o ENABLE_FAST_MUL $end
$var parameter 1 p ENABLE_IRQ $end
$var parameter 1 q ENABLE_IRQ_QREGS $end
$var parameter 1 r ENABLE_IRQ_TIMER $end
$var parameter 1 s ENABLE_MUL $end
$var parameter 1 t ENABLE_PCPI $end
$var parameter 1 u ENABLE_REGS_16_31 $end
$var parameter 1 v ENABLE_REGS_DUALPORT $end
$var parameter 1 w ENABLE_TRACE $end
$var parameter 32 x LATCHED_IRQ $end
$var parameter 1 y LATCHED_MEM_RDATA $end
$var parameter 32 z MASKED_IRQ $end
$var parameter 32 { PROGADDR_IRQ $end
$var parameter 32 | PROGADDR_RESET $end
$var parameter 1 } REGS_INIT_ZERO $end
$var parameter 32 ~ STACKADDR $end
$var parameter 36 !" TRACE_ADDR $end
$var parameter 36 "" TRACE_BRANCH $end
$var parameter 36 #" TRACE_IRQ $end
$var parameter 1 $" TWO_CYCLE_ALU $end
$var parameter 1 %" TWO_CYCLE_COMPARE $end
$var parameter 1 &" TWO_STAGE_SHIFT $end
$var parameter 1 '" WITH_PCPI $end
$var parameter 8 (" cpu_state_exec $end
$var parameter 8 )" cpu_state_fetch $end
$var parameter 8 *" cpu_state_ld_rs1 $end
$var parameter 8 +" cpu_state_ld_rs2 $end
$var parameter 8 ," cpu_state_ldmem $end
$var parameter 8 -" cpu_state_shift $end
$var parameter 8 ." cpu_state_stmem $end
$var parameter 8 /" cpu_state_trap $end
$var parameter 32 0" irq_buserror $end
$var parameter 32 1" irq_ebreak $end
$var parameter 32 2" irq_timer $end
$var parameter 32 3" irqregs_offset $end
$var parameter 32 4" regfile_size $end
$var parameter 32 5" regindex_bits $end
$var reg 32 6" alu_add_sub [31:0] $end
$var reg 1 7" alu_eq $end
$var reg 1 8" alu_lts $end
$var reg 1 9" alu_ltu $end
$var reg 32 :" alu_out [31:0] $end
$var reg 1 ;" alu_out_0 $end
$var reg 1 <" alu_out_0_q $end
$var reg 32 =" alu_out_q [31:0] $end
$var reg 32 >" alu_shl [31:0] $end
$var reg 32 ?" alu_shr [31:0] $end
$var reg 1 @" alu_wait $end
$var reg 1 A" alu_wait_2 $end
$var reg 64 B" cached_ascii_instr [63:0] $end
$var reg 32 C" cached_insn_imm [31:0] $end
$var reg 32 D" cached_insn_opcode [31:0] $end
$var reg 5 E" cached_insn_rd [4:0] $end
$var reg 5 F" cached_insn_rs1 [4:0] $end
$var reg 5 G" cached_insn_rs2 [4:0] $end
$var reg 1 H" clear_prefetched_high_word $end
$var reg 1 I" clear_prefetched_high_word_q $end
$var reg 1 J" compressed_instr $end
$var reg 64 K" count_cycle [63:0] $end
$var reg 64 L" count_instr [63:0] $end
$var reg 8 M" cpu_state [7:0] $end
$var reg 32 N" cpuregs_rs1 [31:0] $end
$var reg 32 O" cpuregs_rs2 [31:0] $end
$var reg 32 P" cpuregs_wrdata [31:0] $end
$var reg 1 Q" cpuregs_write $end
$var reg 32 R" current_pc [31:0] $end
$var reg 64 S" dbg_ascii_instr [63:0] $end
$var reg 128 T" dbg_ascii_state [127:0] $end
$var reg 32 U" dbg_insn_addr [31:0] $end
$var reg 32 V" dbg_insn_imm [31:0] $end
$var reg 32 W" dbg_insn_opcode [31:0] $end
$var reg 5 X" dbg_insn_rd [4:0] $end
$var reg 5 Y" dbg_insn_rs1 [4:0] $end
$var reg 5 Z" dbg_insn_rs2 [4:0] $end
$var reg 1 [" dbg_next $end
$var reg 32 \" dbg_rs1val [31:0] $end
$var reg 1 ]" dbg_rs1val_valid $end
$var reg 32 ^" dbg_rs2val [31:0] $end
$var reg 1 _" dbg_rs2val_valid $end
$var reg 1 `" dbg_valid_insn $end
$var reg 32 a" decoded_imm [31:0] $end
$var reg 32 b" decoded_imm_j [31:0] $end
$var reg 5 c" decoded_rd [4:0] $end
$var reg 5 d" decoded_rs [4:0] $end
$var reg 5 e" decoded_rs1 [4:0] $end
$var reg 5 f" decoded_rs2 [4:0] $end
$var reg 1 g" decoder_pseudo_trigger $end
$var reg 1 h" decoder_pseudo_trigger_q $end
$var reg 1 i" decoder_trigger $end
$var reg 1 j" decoder_trigger_q $end
$var reg 1 k" do_waitirq $end
$var reg 32 l" eoi [31:0] $end
$var reg 1 m" instr_add $end
$var reg 1 n" instr_addi $end
$var reg 1 o" instr_and $end
$var reg 1 p" instr_andi $end
$var reg 1 q" instr_auipc $end
$var reg 1 r" instr_beq $end
$var reg 1 s" instr_bge $end
$var reg 1 t" instr_bgeu $end
$var reg 1 u" instr_blt $end
$var reg 1 v" instr_bltu $end
$var reg 1 w" instr_bne $end
$var reg 1 x" instr_ecall_ebreak $end
$var reg 1 y" instr_fence $end
$var reg 1 z" instr_getq $end
$var reg 1 {" instr_jal $end
$var reg 1 |" instr_jalr $end
$var reg 1 }" instr_lb $end
$var reg 1 ~" instr_lbu $end
$var reg 1 !# instr_lh $end
$var reg 1 "# instr_lhu $end
$var reg 1 ## instr_lui $end
$var reg 1 $# instr_lw $end
$var reg 1 %# instr_maskirq $end
$var reg 1 &# instr_or $end
$var reg 1 '# instr_ori $end
$var reg 1 (# instr_rdcycle $end
$var reg 1 )# instr_rdcycleh $end
$var reg 1 *# instr_rdinstr $end
$var reg 1 +# instr_rdinstrh $end
$var reg 1 ,# instr_retirq $end
$var reg 1 -# instr_sb $end
$var reg 1 .# instr_setq $end
$var reg 1 /# instr_sh $end
$var reg 1 0# instr_sll $end
$var reg 1 1# instr_slli $end
$var reg 1 2# instr_slt $end
$var reg 1 3# instr_slti $end
$var reg 1 4# instr_sltiu $end
$var reg 1 5# instr_sltu $end
$var reg 1 6# instr_sra $end
$var reg 1 7# instr_srai $end
$var reg 1 8# instr_srl $end
$var reg 1 9# instr_srli $end
$var reg 1 :# instr_sub $end
$var reg 1 ;# instr_sw $end
$var reg 1 <# instr_timer $end
$var reg 1 =# instr_waitirq $end
$var reg 1 ># instr_xor $end
$var reg 1 ?# instr_xori $end
$var reg 1 @# irq_active $end
$var reg 1 A# irq_delay $end
$var reg 32 B# irq_mask [31:0] $end
$var reg 32 C# irq_pending [31:0] $end
$var reg 2 D# irq_state [1:0] $end
$var reg 1 E# is_alu_reg_imm $end
$var reg 1 F# is_alu_reg_reg $end
$var reg 1 G# is_beq_bne_blt_bge_bltu_bgeu $end
$var reg 1 H# is_compare $end
$var reg 1 I# is_jalr_addi_slti_sltiu_xori_ori_andi $end
$var reg 1 J# is_lb_lh_lw_lbu_lhu $end
$var reg 1 K# is_lbu_lhu_lw $end
$var reg 1 L# is_lui_auipc_jal $end
$var reg 1 M# is_lui_auipc_jal_jalr_addi_add_sub $end
$var reg 1 N# is_sb_sh_sw $end
$var reg 1 O# is_sll_srl_sra $end
$var reg 1 P# is_slli_srli_srai $end
$var reg 1 Q# is_slti_blt_slt $end
$var reg 1 R# is_sltiu_bltu_sltu $end
$var reg 1 S# last_mem_valid $end
$var reg 1 T# latched_branch $end
$var reg 1 U# latched_compr $end
$var reg 1 V# latched_is_lb $end
$var reg 1 W# latched_is_lh $end
$var reg 1 X# latched_is_lu $end
$var reg 5 Y# latched_rd [4:0] $end
$var reg 1 Z# latched_stalu $end
$var reg 1 [# latched_store $end
$var reg 1 \# latched_trace $end
$var reg 32 ]# mem_addr [31:0] $end
$var reg 1 ^# mem_do_prefetch $end
$var reg 1 _# mem_do_rdata $end
$var reg 1 `# mem_do_rinst $end
$var reg 1 a# mem_do_wdata $end
$var reg 1 9 mem_instr $end
$var reg 1 b# mem_la_firstword_reg $end
$var reg 1 c# mem_la_secondword $end
$var reg 32 d# mem_la_wdata [31:0] $end
$var reg 4 e# mem_la_wstrb [3:0] $end
$var reg 32 f# mem_rdata_q [31:0] $end
$var reg 32 g# mem_rdata_word [31:0] $end
$var reg 2 h# mem_state [1:0] $end
$var reg 1 3 mem_valid $end
$var reg 32 i# mem_wdata [31:0] $end
$var reg 2 j# mem_wordsize [1:0] $end
$var reg 4 k# mem_wstrb [3:0] $end
$var reg 64 l# new_ascii_instr [63:0] $end
$var reg 32 m# next_insn_opcode [31:0] $end
$var reg 32 n# next_irq_pending [31:0] $end
$var reg 32 o# pcpi_insn [31:0] $end
$var reg 32 p# pcpi_int_rd [31:0] $end
$var reg 1 q# pcpi_int_ready $end
$var reg 1 r# pcpi_int_wait $end
$var reg 1 s# pcpi_int_wr $end
$var reg 1 t# pcpi_timeout $end
$var reg 4 u# pcpi_timeout_counter [3:0] $end
$var reg 1 + pcpi_valid $end
$var reg 1 v# prefetched_high_word $end
$var reg 64 w# q_ascii_instr [63:0] $end
$var reg 32 x# q_insn_imm [31:0] $end
$var reg 32 y# q_insn_opcode [31:0] $end
$var reg 5 z# q_insn_rd [4:0] $end
$var reg 5 {# q_insn_rs1 [4:0] $end
$var reg 5 |# q_insn_rs2 [4:0] $end
$var reg 32 }# reg_next_pc [31:0] $end
$var reg 32 ~# reg_op1 [31:0] $end
$var reg 32 !$ reg_op2 [31:0] $end
$var reg 32 "$ reg_out [31:0] $end
$var reg 32 #$ reg_pc [31:0] $end
$var reg 5 $$ reg_sh [4:0] $end
$var reg 1 %$ set_mem_do_rdata $end
$var reg 1 &$ set_mem_do_rinst $end
$var reg 1 '$ set_mem_do_wdata $end
$var reg 32 ($ timer [31:0] $end
$var reg 36 )$ trace_data [35:0] $end
$var reg 1 ' trace_valid $end
$var reg 1 ! trap $end
$scope begin genblk1 $end
$upscope $end
$scope begin genblk2 $end
$upscope $end
$scope begin genblk3 $end
$upscope $end
$scope task empty_statement $end
$upscope $end
$upscope $end
$scope module vec_unit $end
$var wire 1 $ clk $end
$var wire 1 *$ instr_vadd8 $end
$var wire 1 +$ instr_vand $end
$var wire 1 ,$ instr_vec $end
$var wire 1 -$ instr_vor $end
$var wire 1 .$ instr_vsub8 $end
$var wire 32 /$ pcpi_insn [31:0] $end
$var wire 32 0$ pcpi_rs1 [31:0] $end
$var wire 32 1$ pcpi_rs2 [31:0] $end
$var wire 1 + pcpi_valid $end
$var wire 1 % resetn $end
$var wire 32 2$ result_vand [31:0] $end
$var wire 32 3$ result_vor [31:0] $end
$var wire 32 4$ result_vsub8 [31:0] $end
$var wire 32 5$ result_vadd8 [31:0] $end
$var wire 7 6$ opcode [6:0] $end
$var wire 1 7$ is_custom0 $end
$var wire 7 8$ funct7 [6:0] $end
$var wire 3 9$ funct3 [2:0] $end
$var wire 8 :$ b3 [7:0] $end
$var wire 8 ;$ b2 [7:0] $end
$var wire 8 <$ b1 [7:0] $end
$var wire 8 =$ b0 [7:0] $end
$var wire 8 >$ a3 [7:0] $end
$var wire 8 ?$ a2 [7:0] $end
$var wire 8 @$ a1 [7:0] $end
$var wire 8 A$ a0 [7:0] $end
$var reg 32 B$ pcpi_rd [31:0] $end
$var reg 1 . pcpi_ready $end
$var reg 1 * pcpi_wait $end
$var reg 1 ) pcpi_wr $end
$upscope $end
$upscope $end
$upscope $end
$enddefinitions $end
$comment Show the parameter values. $end
$dumpall
b101 5"
b100000 4"
b100000 3"
b0 2"
b1 1"
b10 0"
b10000000 /"
b10 ."
b100 -"
b1 ,"
b10000 +"
b100000 *"
b1000000 )"
b1000 ("
1'"
1&"
0%"
0$"
b100000000000000000000000000000000000 #"
b100000000000000000000000000000000 ""
b1000000000000000000000000000000000 !"
b11111111111111111111111111111111 ~
0}
b0 |
b10000 {
b0 z
0y
b11111111111111111111111111111111 x
0w
1v
1u
1t
0s
1r
1q
0p
0o
0n
1m
1l
0k
1j
1i
0h
b100000000 C
b1000001000000110001011 B
b10000001100000010000000100011 A
b101000001100000000100110111 @
b1000000100000000010110111 ?
b1101111 >
b1110000100000010000000100010011 =
b110000010000001000000010010011 <
$end
#0
$dumpvars
bx B$
bx A$
bx @$
bx ?$
bx >$
bx =$
bx <$
bx ;$
bx :$
bx 9$
bx 8$
x7$
bx 6$
bx 5$
bx 4$
bx 3$
bx 2$
bx 1$
bx 0$
bx /$
x.$
x-$
x,$
x+$
x*$
bx )$
bx ($
x'$
x&$
x%$
bx $$
bx #$
bx "$
bx !$
bx ~#
bx }#
bx |#
bx {#
bx z#
bx y#
bx x#
bx w#
xv#
bx u#
xt#
0s#
xr#
xq#
bx p#
bx o#
bx n#
bx m#
bx l#
bx k#
bx j#
bx i#
bx h#
bx g#
bx f#
bx e#
bx d#
xc#
xb#
xa#
x`#
x_#
x^#
bx ]#
x\#
x[#
xZ#
bx Y#
xX#
xW#
xV#
xU#
xT#
xS#
xR#
xQ#
xP#
xO#
xN#
xM#
xL#
xK#
xJ#
xI#
xH#
xG#
xF#
xE#
bx D#
bx C#
bx B#
xA#
x@#
x?#
x>#
x=#
x<#
x;#
x:#
x9#
x8#
x7#
x6#
x5#
x4#
x3#
x2#
x1#
x0#
x/#
x.#
x-#
x,#
x+#
x*#
x)#
x(#
x'#
x&#
x%#
x$#
x##
x"#
x!#
x~"
x}"
x|"
x{"
xz"
xy"
xx"
xw"
xv"
xu"
xt"
xs"
xr"
xq"
xp"
xo"
xn"
xm"
bx l"
xk"
xj"
xi"
xh"
xg"
bx f"
bx e"
bx d"
bx c"
bx b"
bx a"
x`"
x_"
bx ^"
x]"
bx \"
x["
bx Z"
bx Y"
bx X"
bx W"
bx V"
bx U"
bx T"
bx S"
bx R"
xQ"
bx P"
bx O"
bx N"
bx M"
bx L"
bx K"
xJ"
xI"
0H"
bx G"
bx F"
bx E"
bx D"
bx C"
bx B"
xA"
x@"
bx ?"
bx >"
bx ="
x<"
x;"
bx :"
x9"
x8"
x7"
bx 6"
xg
xf
bx00 e
bx d
bx c
bx b
bx a
bx `
0_
0^
0]
bx \
0[
0Z
0Y
bx X
xW
bx V
bx U
0T
0S
0R
0Q
xP
b0 O
xN
bx M
bx L
xK
xJ
bx I
xH
bx G
bx F
xE
bx D
bx ;
bx :
x9
bx00 8
07
bx 6
05
bx 4
x3
bx 2
bx 1
bx 0
bx /
x.
bx -
bx ,
x+
x*
x)
bx (
x'
b0 &
0%
0$
x#
bx "
x!
$end
#5000
0W
0P
b0 l#
b110011001100101011101000110001101101000 T"
b0 c
0Q"
0q#
0r#
0S#
0b#
0v#
0c#
0K
03
b0 h#
0`"
0y"
0o"
0&#
06#
08#
0>#
05#
02#
00#
0:#
0m"
0p"
0'#
0?#
04#
03#
0n"
0t"
0v"
0s"
0u"
0w"
0r"
0H#
0G#
0I"
b0 C#
0f
0a#
0_#
0`#
0^#
b1000000 M"
b0 ($
b0 ;
b0 l"
b0 D#
b11111111111111111111111111111111 B#
0A#
0@#
0t#
0+
0V#
0W#
0X#
0\#
0T#
0Z#
0[#
b0 L"
b0 }#
b0 #$
0'
0k"
0g"
0i"
b0 K"
b1111 u#
0A"
0@"
0!
0.
0*
b0 /
b0 b
b0 B$
0)
b0 "
b0 F
0#
b0 n#
0'$
0%$
0&$
1$
#10000
0$
#15000
0h"
0j"
0R#
0Q#
0["
b0 n#
1$
#20000
0$
1%
#25000
17
b0 8
b0 e
b1111 4
b1111 e#
bx C#
b0 j#
1f
1`#
b1 K"
bx R"
bx n#
1$
#30000
0$
#35000
1Q
07
b1000000100000000010110111 V
b1000000100000000010110111 d
1W
b1000000100000000010110111 g#
b1000000100000000010110111 I
b1000000100000000010110111 D
b1000000100000000010110111 U
1J
1E
b10 K"
b1 h#
1H
19
1K
13
b0 M
b0 1
b0 k#
b0 G
b0 :
b0 ]#
bx R"
1$
#40000
0$
#45000
0Q
0W
bx00 8
bx00 e
1P
b11011000111010101101001 l#
0N
b0 h#
0K
03
b1000000100000000010110111 m#
b1000000100000000010110111 f#
0J"
b10000 f"
b100 e"
b1 c"
b100000000000010000 b"
0F#
0E#
0N#
0J#
0=#
0,#
0|"
0{"
0q"
1##
0f
0`#
1i"
b11 K"
bx R"
1$
#50000
0$
#55000
0,$
17
0*$
0.$
0+$
0-$
b100 8
b100 e
0P
b11011000110010001011111011100100111001100110001 T"
b100 c
b11011000111010101101001 l#
07$
b110111 6$
b0 9$
b0 8$
b1 X"
b10000 Z"
b100 Y"
b1000000100000000000000000 V"
b1000000100000000010110111 W"
b11011000111010101101001 S"
b100000 M"
1f
1^#
b1 L"
b100 }#
0U#
b1 Y#
1j"
0i"
b100 K"
0_"
0]"
b1000000100000000000000000 a"
0O#
0I#
0P#
0<#
0%#
0.#
0z"
0x"
0g
0+#
0*#
0)#
0(#
07#
09#
01#
0;#
0/#
0-#
0"#
0~"
0$#
0!#
0}"
b1000000100000000010110111 0
b1000000100000000010110111 o#
b1000000100000000010110111 /$
0M#
1L#
b0 U"
1`"
1["
bx R"
1$
#60000
0$
#65000
1Q
07
b110000010000001000000010010011 V
b110000010000001000000010010011 d
1W
b110000010000001000000010010011 g#
b110000010000001000000010010011 I
b110000010000001000000010010011 D
b110000010000001000000010010011 U
b1100101011110000110010101100011 T"
b0 =$
b0 <$
b10 ;$
b1000000100000000000000000 5$
b11111111111111100000000000000000 4$
b1 :$
b1000000100000000000000000 :"
b1000000100000000000000000 6
b1000000100000000000000000 d#
b0 ?"
b0 >"
19"
18"
07"
b1000000100000000000000000 6"
b0 2$
b1000000100000000000000000 3$
b0 A$
b0 @$
b0 ?$
b0 >$
b1 h#
1K
13
b100 G
b100 :
b100 ]#
b1 E"
b10000 G"
b100 F"
b1000000100000000010110111 D"
b1000000100000000000000000 C"
b11011000111010101101001 B"
0["
b1 z#
b10000 |#
b100 {#
b1000000100000000010110111 y#
b1000000100000000000000000 x#
b11011000111010101101001 w#
0K#
1M#
b1000 M"
1`#
b1000000100000000000000000 ,
b1000000100000000000000000 a
b1000000100000000000000000 !$
b1000000100000000000000000 1$
b0 -
b0 `
b0 0$
b0 ~#
0j"
b101 K"
1$
#70000
0$
#75000
0Q
0W
b0 8
b0 e
1P
b110011001100101011101000110001101101000 T"
1Q"
b1000000100000000000000000 P"
b0 l#
1N
b0 h#
0K
03
0f
0`#
0^#
b1000000 M"
1Z#
1[#
b1000000100000000000000000 "$
1i"
b110 K"
b1000000100000000000000000 ="
b100 f"
b1 e"
b1000001100000100 b"
1E#
0##
b110000010000001000000010010011 m#
b110000010000001000000010010011 f#
1$
#80000
0$
#85000
17
b1000 8
b1000 e
0P
b100 Z"
b1 Y"
b1100000100 V"
b110000010000001000000010010011 W"
b1100001011001000110010001101001 S"
b1100001011001000110010001101001 l#
0N
b10011 6$
b11000 8$
bx :"
b1000000100000000000000000 N"
b11011000110010001011111011100100111001100110001 T"
b1000 c
bx P"
0Q"
b100 U"
1["
b1100000100 a"
1I#
1n"
b110000010000001000000010010011 0
b110000010000001000000010010011 o#
b110000010000001000000010010011 /$
0M#
0L#
b100000 M"
1f
1^#
b10 L"
b1000 }#
0Z#
0[#
b100 #$
1j"
0i"
b111 K"
bx "$
bx R"
1$
#90000
0$
#95000
1Q
07
b101000001100000000100110111 V
b101000001100000000100110111 d
1W
b101000001100000000100110111 g#
b101000001100000000100110111 I
b101000001100000000100110111 D
b101000001100000000100110111 U
b1100101011110000110010101100011 T"
b100 =$
b11 <$
b0 ;$
b0 :$
b1100000100 6
b1100000100 d#
b100000010000000000000 ?"
b10000001000000000000000000000 >"
09"
08"
b1000000100000001100000100 6"
b1000000100000001100000100 3$
b10 ?$
b1000000100000001100000100 5$
b1000000101111110111111100 4$
b1 >$
b1000000100000001100000100 :"
b1 h#
1K
13
b1000 G
b1000 :
b1000 ]#
b1000 M"
1`#
1]"
b1000000100000000000000000 \"
b1100000100 ,
b1100000100 a
b1100000100 !$
b1100000100 1$
b1000000100000000000000000 -
b1000000100000000000000000 `
b1000000100000000000000000 0$
b1000000100000000000000000 ~#
0j"
b1000 K"
bx ="
1M#
b100 G"
b1 F"
b110000010000001000000010010011 D"
b1100000100 C"
b1100001011001000110010001101001 B"
0["
b100 |#
b1 {#
b110000010000001000000010010011 y#
b1100000100 x#
b1100001011001000110010001101001 w#
1$
#100000
0$
#105000
0Q
0W
b1000000100000000000000000 8
b1000000100000000000000000 e
1P
bx N"
b1100001011001000110010001101001 l#
b110011001100101011101000110001101101000 T"
1Q"
b1000000100000001100000100 P"
b0 h#
0K
03
b101000001100000000100110111 m#
b101000001100000000100110111 f#
b10000 f"
b1100 e"
b10 c"
b1100000000001010000 b"
0E#
1##
0f
0`#
0^#
b1000000 M"
1Z#
1[#
b1100001000 "$
1i"
b1001 K"
b1000000100000001100000100 ="
1$
#110000
0$
#115000
17
b1100 8
b1100 e
0P
b11011000111010101101001 S"
b11011000110010001011111011100100111001100110001 T"
b1100 c
bx P"
0Q"
bx :"
b11011000111010101101001 l#
b110111 6$
b10 8$
b10 X"
b10000 Z"
b1100 Y"
b101000001100000000000000000 V"
b101000001100000000100110111 W"
b100000 M"
1f
1^#
b11 L"
b1100 }#
b10 Y#
0Z#
0[#
b1000 #$
1j"
0i"
b1010 K"
0]"
bx \"
bx "$
b101000001100000000000000000 a"
0M#
0I#
0n"
b101000001100000000100110111 0
b101000001100000000100110111 o#
b101000001100000000100110111 /$
1L#
b1000 U"
1["
bx R"
1$
#120000
0$
#125000
1Q
07
b1110000100000010000000100010011 V
b1110000100000010000000100010011 d
1W
b1110000100000010000000100010011 g#
b1110000100000010000000100010011 I
b1110000100000010000000100010011 D
b1110000100000010000000100010011 U
b1100101011110000110010101100011 T"
b0 =$
b0 <$
b110 ;$
b101 :$
b101000001100000000000000000 :"
b101000001100000000000000000 6
b101000001100000000000000000 d#
b0 ?"
b0 >"
19"
18"
b101000001100000000000000000 6"
b101000001100000000000000000 3$
b0 ?$
b101000001100000000000000000 5$
b11111011111110100000000000000000 4$
b0 >$
b1 h#
1K
13
b1100 G
b1100 :
b1100 ]#
b10 E"
b10000 G"
b1100 F"
b101000001100000000100110111 D"
b101000001100000000000000000 C"
b11011000111010101101001 B"
0["
b10 z#
b10000 |#
b1100 {#
b101000001100000000100110111 y#
b101000001100000000000000000 x#
b11011000111010101101001 w#
1M#
b1000 M"
1`#
b101000001100000000000000000 ,
b101000001100000000000000000 a
b101000001100000000000000000 !$
b101000001100000000000000000 1$
b0 -
b0 `
b0 0$
b0 ~#
0j"
b1011 K"
bx ="
1$
#130000
0$
#135000
0Q
0W
b0 8
b0 e
1P
b110011001100101011101000110001101101000 T"
1Q"
b101000001100000000000000000 P"
b0 l#
1N
b0 h#
0K
03
0f
0`#
0^#
b1000000 M"
1Z#
1[#
b101000001100000000000001000 "$
1i"
b1100 K"
b101000001100000000000000000 ="
b1000 f"
b10 e"
b10000011100001000 b"
1E#
0##
b1110000100000010000000100010011 m#
b1110000100000010000000100010011 f#
1$
#140000
0$
#145000
17
b10000 8
b10000 e
0P
b1000 Z"
b10 Y"
b11100001000 V"
b1110000100000010000000100010011 W"
b1100001011001000110010001101001 S"
b1100001011001000110010001101001 l#
0N
b10011 6$
b111000 8$
bx :"
b101000001100000000000000000 N"
b11011000110010001011111011100100111001100110001 T"
b10000 c
bx P"
0Q"
b1100 U"
1["
b11100001000 a"
1I#
1n"
b1110000100000010000000100010011 0
b1110000100000010000000100010011 o#
b1110000100000010000000100010011 /$
0M#
0L#
b100000 M"
1f
1^#
b100 L"
b10000 }#
0Z#
0[#
b1100 #$
1j"
0i"
b1101 K"
bx "$
bx R"
1$
#150000
0$
#155000
1Q
07
b1000001000000110001011 V
b1000001000000110001011 d
1W
b1000001000000110001011 g#
b1000001000000110001011 I
b1000001000000110001011 D
b1000001000000110001011 U
b1100101011110000110010101100011 T"
b1000 =$
b111 <$
b0 ;$
b0 :$
b11100001000 6
b11100001000 d#
b1010000011000000000 ?"
b110000000000000000000000000 >"
09"
08"
b101000001100000011100001000 6"
b101000001100000011100001000 3$
b110 ?$
b101000001100000011100001000 5$
b101000001101111100111111000 4$
b101 >$
b101000001100000011100001000 :"
b1 h#
1K
13
b10000 G
b10000 :
b10000 ]#
b1000 M"
1`#
1]"
b101000001100000000000000000 \"
b11100001000 ,
b11100001000 a
b11100001000 !$
b11100001000 1$
b101000001100000000000000000 -
b101000001100000000000000000 `
b101000001100000000000000000 0$
b101000001100000000000000000 ~#
0j"
b1110 K"
bx ="
1M#
b1000 G"
b10 F"
b1110000100000010000000100010011 D"
b11100001000 C"
b1100001011001000110010001101001 B"
0["
b1000 |#
b10 {#
b1110000100000010000000100010011 y#
b11100001000 x#
b1100001011001000110010001101001 w#
1$
#160000
0$
#165000
0Q
0W
b101000001100000000000000000 8
b101000001100000000000000000 e
1P
b101000001100000000000000000 O"
b1000000100000001100000100 N"
b110011001100101011101000110001101101000 T"
1Q"
b101000001100000011100001000 P"
b0 h#
0K
03
b1000001000000110001011 m#
b1000001000000110001011 f#
b10 f"
b1 e"
b11 c"
b1000000000000010 b"
0E#
0f
0`#
0^#
b1000000 M"
1Z#
1[#
b11100010100 "$
1i"
b1111 K"
b101000001100000011100001000 ="
1$
#170000
0$
#175000
1,$
17
1*$
b10100 8
b10100 e
0P
b0 S"
b11011000110010001011111011100100111001100110001 T"
b10100 c
bx P"
0Q"
b101000001100000011100001000 O"
bx :"
b0 l#
1N
17$
b1011 6$
b0 8$
b11 X"
b10 Z"
b1 Y"
b0x V"
b1000001000000110001011 W"
b100000 M"
1f
1^#
b101 L"
b10100 }#
b11 Y#
0Z#
0[#
b10000 #$
1j"
0i"
b10000 K"
0]"
bx \"
bx "$
b0x a"
0M#
0I#
0n"
b1000001000000110001011 0
b1000001000000110001011 o#
b1000001000000110001011 /$
b10000 U"
1["
bx R"
1$
#180000
0$
