507_project/picorv32/tb_picorv32_vec_all_program_top.vcd
$date
	Wed May 06 20:02:46 2026
$end
$version
	Icarus Verilog
$end
$timescale
	1ps
$end
$scope module tb_picorv32_vec_all_program_top $end
$var wire 1 ! trap $end
$var wire 1 " test_done $end
$var wire 32 # result_vsub8 [31:0] $end
$var wire 32 $ result_vor [31:0] $end
$var wire 32 % result_vand [31:0] $end
$var wire 32 & result_vadd8 [31:0] $end
$var reg 1 ' clk $end
$var reg 1 ( resetn $end
$scope module uut $end
$var wire 1 ' clk $end
$var wire 32 ) irq [31:0] $end
$var wire 1 ( resetn $end
$var wire 1 ! trap $end
$var wire 1 * trace_valid $end
$var wire 36 + trace_data [35:0] $end
$var wire 1 , pcpi_wr $end
$var wire 1 - pcpi_wait $end
$var wire 1 . pcpi_valid $end
$var wire 32 / pcpi_rs2 [31:0] $end
$var wire 32 0 pcpi_rs1 [31:0] $end
$var wire 1 1 pcpi_ready $end
$var wire 32 2 pcpi_rd [31:0] $end
$var wire 32 3 pcpi_insn [31:0] $end
$var wire 4 4 mem_wstrb [3:0] $end
$var wire 32 5 mem_wdata [31:0] $end
$var wire 1 6 mem_valid $end
$var wire 4 7 mem_la_wstrb [3:0] $end
$var wire 1 8 mem_la_write $end
$var wire 32 9 mem_la_wdata [31:0] $end
$var wire 1 : mem_la_read $end
$var wire 32 ; mem_la_addr [31:0] $end
$var wire 1 < mem_instr $end
$var wire 32 = mem_addr [31:0] $end
$var wire 32 > eoi [31:0] $end
$var parameter 12 ? IMM_100 $end
$var parameter 12 @ IMM_104 $end
$var parameter 12 A IMM_108 $end
$var parameter 12 B IMM_10C $end
$var parameter 32 C INST_ADDI_X1_A $end
$var parameter 32 D INST_ADDI_X2_A $end
$var parameter 32 E INST_LOOP $end
$var parameter 32 F INST_LUI_X1_A $end
$var parameter 32 G INST_LUI_X2_A $end
$var parameter 32 H INST_SW_X3_100 $end
$var parameter 32 I INST_SW_X4_104 $end
$var parameter 32 J INST_SW_X5_108 $end
$var parameter 32 K INST_SW_X6_10C $end
$var parameter 32 L INST_VADD8_X3_X1_X2 $end
$var parameter 32 M INST_VAND_X5_X1_X2 $end
$var parameter 32 N INST_VOR_X6_X1_X2 $end
$var parameter 32 O INST_VSUB8_X4_X2_X1 $end
$var reg 32 P mem_rdata [31:0] $end
$var reg 1 Q mem_ready $end
$var reg 32 R result_vadd8 [31:0] $end
$var reg 32 S result_vand [31:0] $end
$var reg 32 T result_vor [31:0] $end
$var reg 32 U result_vsub8 [31:0] $end
$var reg 1 " test_done $end
$scope module cpu $end
$var wire 1 ' clk $end
$var wire 32 V dbg_mem_addr [31:0] $end
$var wire 1 W dbg_mem_instr $end
$var wire 32 X dbg_mem_rdata [31:0] $end
$var wire 1 Y dbg_mem_ready $end
$var wire 1 Z dbg_mem_valid $end
$var wire 32 [ dbg_mem_wdata [31:0] $end
$var wire 4 \ dbg_mem_wstrb [3:0] $end
$var wire 1 ] instr_trap $end
$var wire 32 ^ irq [31:0] $end
$var wire 1 _ launch_next_insn $end
$var wire 1 ` mem_done $end
$var wire 1 a mem_la_firstword $end
$var wire 1 b mem_la_firstword_xfer $end
$var wire 1 : mem_la_read $end
$var wire 1 c mem_la_use_prefetched_high_word $end
$var wire 1 8 mem_la_write $end
$var wire 32 d mem_rdata [31:0] $end
$var wire 32 e mem_rdata_latched [31:0] $end
$var wire 1 Q mem_ready $end
$var wire 1 f mem_xfer $end
$var wire 32 g pcpi_div_rd [31:0] $end
$var wire 1 h pcpi_div_ready $end
$var wire 1 i pcpi_div_wait $end
$var wire 1 j pcpi_div_wr $end
$var wire 32 k pcpi_mul_rd [31:0] $end
$var wire 1 l pcpi_mul_ready $end
$var wire 1 m pcpi_mul_wait $end
$var wire 1 n pcpi_mul_wr $end
$var wire 32 o pcpi_rs1 [31:0] $end
$var wire 1 ( resetn $end
$var wire 1 , pcpi_wr $end
$var wire 1 - pcpi_wait $end
$var wire 32 p pcpi_rs2 [31:0] $end
$var wire 1 1 pcpi_ready $end
$var wire 32 q pcpi_rd [31:0] $end
$var wire 32 r next_pc [31:0] $end
$var wire 32 s mem_rdata_latched_noshuffle [31:0] $end
$var wire 32 t mem_la_addr [31:0] $end
$var wire 1 u mem_busy $end
$var wire 1 v is_rdcycle_rdcycleh_rdinstr_rdinstrh $end
$var parameter 1 w BARREL_SHIFTER $end
$var parameter 1 x CATCH_ILLINSN $end
$var parameter 1 y CATCH_MISALIGN $end
$var parameter 1 z COMPRESSED_ISA $end
$var parameter 1 { ENABLE_COUNTERS $end
$var parameter 1 | ENABLE_COUNTERS64 $end
$var parameter 1 } ENABLE_DIV $end
$var parameter 1 ~ ENABLE_FAST_MUL $end
$var parameter 1 !" ENABLE_IRQ $end
$var parameter 1 "" ENABLE_IRQ_QREGS $end
$var parameter 1 #" ENABLE_IRQ_TIMER $end
$var parameter 1 $" ENABLE_MUL $end
$var parameter 1 %" ENABLE_PCPI $end
$var parameter 1 &" ENABLE_REGS_16_31 $end
$var parameter 1 '" ENABLE_REGS_DUALPORT $end
$var parameter 1 (" ENABLE_TRACE $end
$var parameter 32 )" LATCHED_IRQ $end
$var parameter 1 *" LATCHED_MEM_RDATA $end
$var parameter 32 +" MASKED_IRQ $end
$var parameter 32 ," PROGADDR_IRQ $end
$var parameter 32 -" PROGADDR_RESET $end
$var parameter 1 ." REGS_INIT_ZERO $end
$var parameter 32 /" STACKADDR $end
$var parameter 36 0" TRACE_ADDR $end
$var parameter 36 1" TRACE_BRANCH $end
$var parameter 36 2" TRACE_IRQ $end
$var parameter 1 3" TWO_CYCLE_ALU $end
$var parameter 1 4" TWO_CYCLE_COMPARE $end
$var parameter 1 5" TWO_STAGE_SHIFT $end
$var parameter 1 6" WITH_PCPI $end
$var parameter 8 7" cpu_state_exec $end
$var parameter 8 8" cpu_state_fetch $end
$var parameter 8 9" cpu_state_ld_rs1 $end
$var parameter 8 :" cpu_state_ld_rs2 $end
$var parameter 8 ;" cpu_state_ldmem $end
$var parameter 8 <" cpu_state_shift $end
$var parameter 8 =" cpu_state_stmem $end
$var parameter 8 >" cpu_state_trap $end
$var parameter 32 ?" irq_buserror $end
$var parameter 32 @" irq_ebreak $end
$var parameter 32 A" irq_timer $end
$var parameter 32 B" irqregs_offset $end
$var parameter 32 C" regfile_size $end
$var parameter 32 D" regindex_bits $end
$var reg 32 E" alu_add_sub [31:0] $end
$var reg 1 F" alu_eq $end
$var reg 1 G" alu_lts $end
$var reg 1 H" alu_ltu $end
$var reg 32 I" alu_out [31:0] $end
$var reg 1 J" alu_out_0 $end
$var reg 1 K" alu_out_0_q $end
$var reg 32 L" alu_out_q [31:0] $end
$var reg 32 M" alu_shl [31:0] $end
$var reg 32 N" alu_shr [31:0] $end
$var reg 1 O" alu_wait $end
$var reg 1 P" alu_wait_2 $end
$var reg 64 Q" cached_ascii_instr [63:0] $end
$var reg 32 R" cached_insn_imm [31:0] $end
$var reg 32 S" cached_insn_opcode [31:0] $end
$var reg 5 T" cached_insn_rd [4:0] $end
$var reg 5 U" cached_insn_rs1 [4:0] $end
$var reg 5 V" cached_insn_rs2 [4:0] $end
$var reg 1 W" clear_prefetched_high_word $end
$var reg 1 X" clear_prefetched_high_word_q $end
$var reg 1 Y" compressed_instr $end
$var reg 64 Z" count_cycle [63:0] $end
$var reg 64 [" count_instr [63:0] $end
$var reg 8 \" cpu_state [7:0] $end
$var reg 32 ]" cpuregs_rs1 [31:0] $end
$var reg 32 ^" cpuregs_rs2 [31:0] $end
$var reg 32 _" cpuregs_wrdata [31:0] $end
$var reg 1 `" cpuregs_write $end
$var reg 32 a" current_pc [31:0] $end
$var reg 64 b" dbg_ascii_instr [63:0] $end
$var reg 128 c" dbg_ascii_state [127:0] $end
$var reg 32 d" dbg_insn_addr [31:0] $end
$var reg 32 e" dbg_insn_imm [31:0] $end
$var reg 32 f" dbg_insn_opcode [31:0] $end
$var reg 5 g" dbg_insn_rd [4:0] $end
$var reg 5 h" dbg_insn_rs1 [4:0] $end
$var reg 5 i" dbg_insn_rs2 [4:0] $end
$var reg 1 j" dbg_next $end
$var reg 32 k" dbg_rs1val [31:0] $end
$var reg 1 l" dbg_rs1val_valid $end
$var reg 32 m" dbg_rs2val [31:0] $end
$var reg 1 n" dbg_rs2val_valid $end
$var reg 1 o" dbg_valid_insn $end
$var reg 32 p" decoded_imm [31:0] $end
$var reg 32 q" decoded_imm_j [31:0] $end
$var reg 5 r" decoded_rd [4:0] $end
$var reg 5 s" decoded_rs [4:0] $end
$var reg 5 t" decoded_rs1 [4:0] $end
$var reg 5 u" decoded_rs2 [4:0] $end
$var reg 1 v" decoder_pseudo_trigger $end
$var reg 1 w" decoder_pseudo_trigger_q $end
$var reg 1 x" decoder_trigger $end
$var reg 1 y" decoder_trigger_q $end
$var reg 1 z" do_waitirq $end
$var reg 32 {" eoi [31:0] $end
$var reg 1 |" instr_add $end
$var reg 1 }" instr_addi $end
$var reg 1 ~" instr_and $end
$var reg 1 !# instr_andi $end
$var reg 1 "# instr_auipc $end
$var reg 1 ## instr_beq $end
$var reg 1 $# instr_bge $end
$var reg 1 %# instr_bgeu $end
$var reg 1 &# instr_blt $end
$var reg 1 '# instr_bltu $end
$var reg 1 (# instr_bne $end
$var reg 1 )# instr_ecall_ebreak $end
$var reg 1 *# instr_fence $end
$var reg 1 +# instr_getq $end
$var reg 1 ,# instr_jal $end
$var reg 1 -# instr_jalr $end
$var reg 1 .# instr_lb $end
$var reg 1 /# instr_lbu $end
$var reg 1 0# instr_lh $end
$var reg 1 1# instr_lhu $end
$var reg 1 2# instr_lui $end
$var reg 1 3# instr_lw $end
$var reg 1 4# instr_maskirq $end
$var reg 1 5# instr_or $end
$var reg 1 6# instr_ori $end
$var reg 1 7# instr_rdcycle $end
$var reg 1 8# instr_rdcycleh $end
$var reg 1 9# instr_rdinstr $end
$var reg 1 :# instr_rdinstrh $end
$var reg 1 ;# instr_retirq $end
$var reg 1 <# instr_sb $end
$var reg 1 =# instr_setq $end
$var reg 1 ># instr_sh $end
$var reg 1 ?# instr_sll $end
$var reg 1 @# instr_slli $end
$var reg 1 A# instr_slt $end
$var reg 1 B# instr_slti $end
$var reg 1 C# instr_sltiu $end
$var reg 1 D# instr_sltu $end
$var reg 1 E# instr_sra $end
$var reg 1 F# instr_srai $end
$var reg 1 G# instr_srl $end
$var reg 1 H# instr_srli $end
$var reg 1 I# instr_sub $end
$var reg 1 J# instr_sw $end
$var reg 1 K# instr_timer $end
$var reg 1 L# instr_waitirq $end
$var reg 1 M# instr_xor $end
$var reg 1 N# instr_xori $end
$var reg 1 O# irq_active $end
$var reg 1 P# irq_delay $end
$var reg 32 Q# irq_mask [31:0] $end
$var reg 32 R# irq_pending [31:0] $end
$var reg 2 S# irq_state [1:0] $end
$var reg 1 T# is_alu_reg_imm $end
$var reg 1 U# is_alu_reg_reg $end
$var reg 1 V# is_beq_bne_blt_bge_bltu_bgeu $end
$var reg 1 W# is_compare $end
$var reg 1 X# is_jalr_addi_slti_sltiu_xori_ori_andi $end
$var reg 1 Y# is_lb_lh_lw_lbu_lhu $end
$var reg 1 Z# is_lbu_lhu_lw $end
$var reg 1 [# is_lui_auipc_jal $end
$var reg 1 \# is_lui_auipc_jal_jalr_addi_add_sub $end
$var reg 1 ]# is_sb_sh_sw $end
$var reg 1 ^# is_sll_srl_sra $end
$var reg 1 _# is_slli_srli_srai $end
$var reg 1 `# is_slti_blt_slt $end
$var reg 1 a# is_sltiu_bltu_sltu $end
$var reg 1 b# last_mem_valid $end
$var reg 1 c# latched_branch $end
$var reg 1 d# latched_compr $end
$var reg 1 e# latched_is_lb $end
$var reg 1 f# latched_is_lh $end
$var reg 1 g# latched_is_lu $end
$var reg 5 h# latched_rd [4:0] $end
$var reg 1 i# latched_stalu $end
$var reg 1 j# latched_store $end
$var reg 1 k# latched_trace $end
$var reg 32 l# mem_addr [31:0] $end
$var reg 1 m# mem_do_prefetch $end
$var reg 1 n# mem_do_rdata $end
$var reg 1 o# mem_do_rinst $end
$var reg 1 p# mem_do_wdata $end
$var reg 1 < mem_instr $end
$var reg 1 q# mem_la_firstword_reg $end
$var reg 1 r# mem_la_secondword $end
$var reg 32 s# mem_la_wdata [31:0] $end
$var reg 4 t# mem_la_wstrb [3:0] $end
$var reg 32 u# mem_rdata_q [31:0] $end
$var reg 32 v# mem_rdata_word [31:0] $end
$var reg 2 w# mem_state [1:0] $end
$var reg 1 6 mem_valid $end
$var reg 32 x# mem_wdata [31:0] $end
$var reg 2 y# mem_wordsize [1:0] $end
$var reg 4 z# mem_wstrb [3:0] $end
$var reg 64 {# new_ascii_instr [63:0] $end
$var reg 32 |# next_insn_opcode [31:0] $end
$var reg 32 }# next_irq_pending [31:0] $end
$var reg 32 ~# pcpi_insn [31:0] $end
$var reg 32 !$ pcpi_int_rd [31:0] $end
$var reg 1 "$ pcpi_int_ready $end
$var reg 1 #$ pcpi_int_wait $end
$var reg 1 $$ pcpi_int_wr $end
$var reg 1 %$ pcpi_timeout $end
$var reg 4 &$ pcpi_timeout_counter [3:0] $end
$var reg 1 . pcpi_valid $end
$var reg 1 '$ prefetched_high_word $end
$var reg 64 ($ q_ascii_instr [63:0] $end
$var reg 32 )$ q_insn_imm [31:0] $end
$var reg 32 *$ q_insn_opcode [31:0] $end
$var reg 5 +$ q_insn_rd [4:0] $end
$var reg 5 ,$ q_insn_rs1 [4:0] $end
$var reg 5 -$ q_insn_rs2 [4:0] $end
$var reg 32 .$ reg_next_pc [31:0] $end
$var reg 32 /$ reg_op1 [31:0] $end
$var reg 32 0$ reg_op2 [31:0] $end
$var reg 32 1$ reg_out [31:0] $end
$var reg 32 2$ reg_pc [31:0] $end
$var reg 5 3$ reg_sh [4:0] $end
$var reg 1 4$ set_mem_do_rdata $end
$var reg 1 5$ set_mem_do_rinst $end
$var reg 1 6$ set_mem_do_wdata $end
$var reg 32 7$ timer [31:0] $end
$var reg 36 8$ trace_data [35:0] $end
$var reg 1 * trace_valid $end
$var reg 1 ! trap $end
$scope begin genblk1 $end
$upscope $end
$scope begin genblk2 $end
$upscope $end
$scope begin genblk3 $end
$upscope $end
$scope task empty_statement $end
$upscope $end
$upscope $end
$scope module vec_unit $end
$var wire 1 ' clk $end
$var wire 1 9$ instr_vadd8 $end
$var wire 1 :$ instr_vand $end
$var wire 1 ;$ instr_vec $end
$var wire 1 <$ instr_vor $end
$var wire 1 =$ instr_vsub8 $end
$var wire 32 >$ pcpi_insn [31:0] $end
$var wire 32 ?$ pcpi_rs1 [31:0] $end
$var wire 32 @$ pcpi_rs2 [31:0] $end
$var wire 1 . pcpi_valid $end
$var wire 1 ( resetn $end
$var wire 32 A$ result_vand [31:0] $end
$var wire 32 B$ result_vor [31:0] $end
$var wire 32 C$ result_vsub8 [31:0] $end
$var wire 32 D$ result_vadd8 [31:0] $end
$var wire 7 E$ opcode [6:0] $end
$var wire 1 F$ is_custom0 $end
$var wire 7 G$ funct7 [6:0] $end
$var wire 3 H$ funct3 [2:0] $end
$var wire 8 I$ b3 [7:0] $end
$var wire 8 J$ b2 [7:0] $end
$var wire 8 K$ b1 [7:0] $end
$var wire 8 L$ b0 [7:0] $end
$var wire 8 M$ a3 [7:0] $end
$var wire 8 N$ a2 [7:0] $end
$var wire 8 O$ a1 [7:0] $end
$var wire 8 P$ a0 [7:0] $end
$var reg 32 Q$ pcpi_rd [31:0] $end
$var reg 1 1 pcpi_ready $end
$var reg 1 - pcpi_wait $end
$var reg 1 , pcpi_wr $end
$upscope $end
$upscope $end
$upscope $end
$enddefinitions $end
$comment Show the parameter values. $end
$dumpall
b101 D"
b100000 C"
b100000 B"
b0 A"
b1 @"
b10 ?"
b10000000 >"
b10 ="
b100 <"
b1 ;"
b10000 :"
b100000 9"
b1000000 8"
b1000 7"
16"
15"
04"
03"
b100000000000000000000000000000000000 2"
b100000000000000000000000000000000 1"
b1000000000000000000000000000000000 0"
b11111111111111111111111111111111 /"
0."
b0 -"
b10000 ,"
b0 +"
0*"
b11111111111111111111111111111111 )"
0("
1'"
1&"
1%"
0$"
1#"
1""
0!"
0~
0}
1|
1{
0z
1y
1x
0w
b100010001001000001011 O
b1000001011001100001011 N
b1000001010001010001011 M
b1000001000000110001011 L
b10000011000000010011000100011 K
b10000010100000010010000100011 J
b10000010000000010001000100011 I
b10000001100000010000000100011 H
b101000001100000000100110111 G
b1000000100000000010110111 F
b1101111 E
b1110000100000010000000100010011 D
b110000010000001000000010010011 C
b100001100 B
b100001000 A
b100000100 @
b100000000 ?
$end
#0
$dumpvars
bx Q$
bx P$
bx O$
bx N$
bx M$
bx L$
bx K$
bx J$
bx I$
bx H$
bx G$
xF$
bx E$
bx D$
bx C$
bx B$
bx A$
bx @$
bx ?$
bx >$
x=$
x<$
x;$
x:$
x9$
bx 8$
bx 7$
x6$
x5$
x4$
bx 3$
bx 2$
bx 1$
bx 0$
bx /$
bx .$
bx -$
bx ,$
bx +$
bx *$
bx )$
bx ($
x'$
bx &$
x%$
0$$
x#$
x"$
bx !$
bx ~#
bx }#
bx |#
bx {#
bx z#
bx y#
bx x#
bx w#
bx v#
bx u#
bx t#
bx s#
xr#
xq#
xp#
xo#
xn#
xm#
bx l#
xk#
xj#
xi#
bx h#
xg#
xf#
xe#
xd#
xc#
xb#
xa#
x`#
x_#
x^#
x]#
x\#
x[#
xZ#
xY#
xX#
xW#
xV#
xU#
xT#
bx S#
bx R#
bx Q#
xP#
xO#
xN#
xM#
xL#
xK#
xJ#
xI#
xH#
xG#
xF#
xE#
xD#
xC#
xB#
xA#
x@#
x?#
x>#
x=#
x<#
x;#
x:#
x9#
x8#
x7#
x6#
x5#
x4#
x3#
x2#
x1#
x0#
x/#
x.#
x-#
x,#
x+#
x*#
x)#
x(#
x'#
x&#
x%#
x$#
x##
x"#
x!#
x~"
x}"
x|"
bx {"
xz"
xy"
xx"
xw"
xv"
bx u"
bx t"
bx s"
bx r"
bx q"
bx p"
xo"
xn"
bx m"
xl"
bx k"
xj"
bx i"
bx h"
bx g"
bx f"
bx e"
bx d"
bx c"
bx b"
bx a"
x`"
bx _"
bx ^"
bx ]"
bx \"
bx ["
bx Z"
xY"
xX"
0W"
bx V"
bx U"
bx T"
bx S"
bx R"
bx Q"
xP"
xO"
bx N"
bx M"
bx L"
xK"
xJ"
bx I"
xH"
xG"
xF"
bx E"
xv
xu
bx00 t
bx s
bx r
bx q
bx p
bx o
0n
0m
0l
bx k
0j
0i
0h
bx g
xf
bx e
bx d
0c
0b
0a
0`
x_
b0 ^
x]
bx \
bx [
xZ
xY
bx X
xW
bx V
bx U
bx T
bx S
bx R
xQ
bx P
bx >
bx =
x<
bx00 ;
0:
bx 9
08
bx 7
x6
bx 5
bx 4
bx 3
bx 2
x1
bx 0
bx /
x.
x-
x,
bx +
x*
b0 )
0(
0'
bx &
bx %
bx $
bx #
x"
x!
$end
#5000
0f
0_
b0 {#
b110011001100101011101000110001101101000 c"
b0 r
0`"
0"$
0#$
0b#
0q#
0'$
0r#
0Z
06
b0 w#
0o"
0*#
0~"
05#
0E#
0G#
0M#
0D#
0A#
0?#
0I#
0|"
0!#
06#
0N#
0C#
0B#
0}"
0%#
0'#
0$#
0&#
0(#
0##
0W#
0V#
0X"
b0 R#
0u
0p#
0n#
0o#
0m#
b1000000 \"
b0 7$
b0 >
b0 {"
b0 S#
b11111111111111111111111111111111 Q#
0P#
0O#
0%$
0.
0e#
0f#
0g#
0k#
0c#
0i#
0j#
b0 ["
b0 .$
b0 2$
0*
0z"
0v"
0x"
b0 Z"
b1111 &$
0P"
0O"
0!
01
0-
b0 2
b0 q
b0 Q$
0,
b0 $
b0 T
b0 %
b0 S
b0 #
b0 U
b0 &
b0 R
0"
b0 }#
06$
04$
05$
1'
#10000
0'
#15000
0w"
0y"
0a#
0`#
0j"
b0 }#
1'
#20000
0'
1(
#25000
1:
b0 ;
b0 t
b1111 7
b1111 t#
bx R#
b0 y#
1u
1o#
b1 Z"
bx a"
bx }#
1'
#30000
0'
#35000
1`
0:
b1000000100000000010110111 e
b1000000100000000010110111 s
1f
b1000000100000000010110111 v#
b1000000100000000010110111 X
b1000000100000000010110111 P
b1000000100000000010110111 d
1Y
1Q
b10 Z"
b1 w#
1W
1<
1Z
16
b0 \
b0 4
b0 z#
b0 V
b0 =
b0 l#
bx a"
1'
#40000
0'
#45000
0`
0f
bx00 ;
bx00 t
1_
b11011000111010101101001 {#
0]
b0 w#
0Z
06
b1000000100000000010110111 |#
b1000000100000000010110111 u#
0Y"
b10000 u"
b100 t"
b1 r"
b100000000000010000 q"
0U#
0T#
0]#
0Y#
0L#
0;#
0-#
0,#
0"#
12#
0u
0o#
1x"
b11 Z"
bx a"
1'
#50000
0'
#55000
0;$
1:
09$
0=$
0:$
0<$
b100 ;
b100 t
0_
b11011000110010001011111011100100111001100110001 c"
b100 r
b11011000111010101101001 {#
0F$
b110111 E$
b0 H$
b0 G$
b1 g"
b10000 i"
b100 h"
b1000000100000000000000000 e"
b1000000100000000010110111 f"
b11011000111010101101001 b"
b100000 \"
1u
1m#
b1 ["
b100 .$
0d#
b1 h#
1y"
0x"
b100 Z"
0n"
0l"
b1000000100000000000000000 p"
0^#
0X#
0_#
0K#
04#
0=#
0+#
0)#
0v
0:#
09#
08#
07#
0F#
0H#
0@#
0J#
0>#
0<#
01#
0/#
03#
00#
0.#
b1000000100000000010110111 3
b1000000100000000010110111 ~#
b1000000100000000010110111 >$
0\#
1[#
b0 d"
1o"
1j"
bx a"
1'
#60000
0'
#65000
1`
0:
b110000010000001000000010010011 e
b110000010000001000000010010011 s
1f
b110000010000001000000010010011 v#
b110000010000001000000010010011 X
b110000010000001000000010010011 P
b110000010000001000000010010011 d
b1100101011110000110010101100011 c"
b0 L$
b0 K$
b10 J$
b1000000100000000000000000 D$
b11111111111111100000000000000000 C$
b1 I$
b1000000100000000000000000 I"
b1000000100000000000000000 9
b1000000100000000000000000 s#
b0 N"
b0 M"
1H"
1G"
0F"
b1000000100000000000000000 E"
b0 A$
b1000000100000000000000000 B$
b0 P$
b0 O$
b0 N$
b0 M$
b1 w#
1Z
16
b100 V
b100 =
b100 l#
b1 T"
b10000 V"
b100 U"
b1000000100000000010110111 S"
b1000000100000000000000000 R"
b11011000111010101101001 Q"
0j"
b1 +$
b10000 -$
b100 ,$
b1000000100000000010110111 *$
b1000000100000000000000000 )$
b11011000111010101101001 ($
0Z#
1\#
b1000 \"
1o#
b1000000100000000000000000 /
b1000000100000000000000000 p
b1000000100000000000000000 0$
b1000000100000000000000000 @$
b0 0
b0 o
b0 ?$
b0 /$
0y"
b101 Z"
1'
#70000
0'
#75000
0`
0f
b0 ;
b0 t
1_
b110011001100101011101000110001101101000 c"
1`"
b1000000100000000000000000 _"
b0 {#
1]
b0 w#
0Z
06
0u
0o#
0m#
b1000000 \"
1i#
1j#
b1000000100000000000000000 1$
1x"
b110 Z"
b1000000100000000000000000 L"
b100 u"
b1 t"
b1000001100000100 q"
1T#
02#
b110000010000001000000010010011 |#
b110000010000001000000010010011 u#
1'
#80000
0'
#85000
1:
b1000 ;
b1000 t
0_
b100 i"
b1 h"
b1100000100 e"
b110000010000001000000010010011 f"
b1100001011001000110010001101001 b"
b1100001011001000110010001101001 {#
0]
b10011 E$
b11000 G$
bx I"
b1000000100000000000000000 ]"
b11011000110010001011111011100100111001100110001 c"
b1000 r
bx _"
0`"
b100 d"
1j"
b1100000100 p"
1X#
1}"
b110000010000001000000010010011 3
b110000010000001000000010010011 ~#
b110000010000001000000010010011 >$
0\#
0[#
b100000 \"
1u
1m#
b10 ["
b1000 .$
0i#
0j#
b100 2$
1y"
0x"
b111 Z"
bx 1$
bx a"
1'
#90000
0'
#95000
1`
0:
b101000001100000000100110111 e
b101000001100000000100110111 s
1f
b101000001100000000100110111 v#
b101000001100000000100110111 X
b101000001100000000100110111 P
b101000001100000000100110111 d
b1100101011110000110010101100011 c"
b100 L$
b11 K$
b0 J$
b0 I$
b1100000100 9
b1100000100 s#
b100000010000000000000 N"
b10000001000000000000000000000 M"
0H"
0G"
b1000000100000001100000100 E"
b1000000100000001100000100 B$
b10 N$
b1000000100000001100000100 D$
b1000000101111110111111100 C$
b1 M$
b1000000100000001100000100 I"
b1 w#
1Z
16
b1000 V
b1000 =
b1000 l#
b1000 \"
1o#
1l"
b1000000100000000000000000 k"
b1100000100 /
b1100000100 p
b1100000100 0$
b1100000100 @$
b1000000100000000000000000 0
b1000000100000000000000000 o
b1000000100000000000000000 ?$
b1000000100000000000000000 /$
0y"
b1000 Z"
bx L"
1\#
b100 V"
b1 U"
b110000010000001000000010010011 S"
b1100000100 R"
b1100001011001000110010001101001 Q"
0j"
b100 -$
b1 ,$
b110000010000001000000010010011 *$
b1100000100 )$
b1100001011001000110010001101001 ($
1'
#100000
0'
#105000
0`
0f
b1000000100000000000000000 ;
b1000000100000000000000000 t
1_
bx ]"
b1100001011001000110010001101001 {#
b110011001100101011101000110001101101000 c"
1`"
b1000000100000001100000100 _"
b0 w#
0Z
06
b101000001100000000100110111 |#
b101000001100000000100110111 u#
b10000 u"
b1100 t"
b10 r"
b1100000000001010000 q"
0T#
12#
0u
0o#
0m#
b1000000 \"
1i#
1j#
b1100001000 1$
1x"
b1001 Z"
b1000000100000001100000100 L"
1'
#110000
0'
#115000
1:
b1100 ;
b1100 t
0_
b11011000111010101101001 b"
b11011000110010001011111011100100111001100110001 c"
b1100 r
bx _"
0`"
bx I"
b11011000111010101101001 {#
b110111 E$
b10 G$
b10 g"
b10000 i"
b1100 h"
b101000001100000000000000000 e"
b101000001100000000100110111 f"
b100000 \"
1u
1m#
b11 ["
b1100 .$
b10 h#
0i#
0j#
b1000 2$
1y"
0x"
b1010 Z"
0l"
bx k"
bx 1$
b101000001100000000000000000 p"
0\#
0X#
0}"
b101000001100000000100110111 3
b101000001100000000100110111 ~#
b101000001100000000100110111 >$
1[#
b1000 d"
1j"
bx a"
1'
#120000
0'
#125000
1`
0:
b1110000100000010000000100010011 e
b1110000100000010000000100010011 s
1f
b1110000100000010000000100010011 v#
b1110000100000010000000100010011 X
b1110000100000010000000100010011 P
b1110000100000010000000100010011 d
b1100101011110000110010101100011 c"
b0 L$
b0 K$
b110 J$
b101 I$
b101000001100000000000000000 I"
b101000001100000000000000000 9
b101000001100000000000000000 s#
b0 N"
b0 M"
1H"
1G"
b101000001100000000000000000 E"
b101000001100000000000000000 B$
b0 N$
b101000001100000000000000000 D$
b11111011111110100000000000000000 C$
b0 M$
b1 w#
1Z
16
b1100 V
b1100 =
b1100 l#
b10 T"
b10000 V"
b1100 U"
b101000001100000000100110111 S"
b101000001100000000000000000 R"
b11011000111010101101001 Q"
0j"
b10 +$
b10000 -$
b1100 ,$
b101000001100000000100110111 *$
b101000001100000000000000000 )$
b11011000111010101101001 ($
1\#
b1000 \"
1o#
b101000001100000000000000000 /
b101000001100000000000000000 p
b101000001100000000000000000 0$
b101000001100000000000000000 @$
b0 0
b0 o
b0 ?$
b0 /$
0y"
b1011 Z"
bx L"
1'
#130000
0'
#135000
0`
0f
b0 ;
b0 t
1_
b110011001100101011101000110001101101000 c"
1`"
b101000001100000000000000000 _"
b0 {#
1]
b0 w#
0Z
06
0u
0o#
0m#
b1000000 \"
1i#
1j#
b101000001100000000000001000 1$
1x"
b1100 Z"
b101000001100000000000000000 L"
b1000 u"
b10 t"
b10000011100001000 q"
1T#
02#
b1110000100000010000000100010011 |#
b1110000100000010000000100010011 u#
1'
#140000
0'
#145000
1:
b10000 ;
b10000 t
0_
b1000 i"
b10 h"
b11100001000 e"
b1110000100000010000000100010011 f"
b1100001011001000110010001101001 b"
b1100001011001000110010001101001 {#
0]
b10011 E$
b111000 G$
bx I"
b101000001100000000000000000 ]"
b11011000110010001011111011100100111001100110001 c"
b10000 r
bx _"
0`"
b1100 d"
1j"
b11100001000 p"
1X#
1}"
b1110000100000010000000100010011 3
b1110000100000010000000100010011 ~#
b1110000100000010000000100010011 >$
0\#
0[#
b100000 \"
1u
1m#
b100 ["
b10000 .$
0i#
0j#
b1100 2$
1y"
0x"
b1101 Z"
bx 1$
bx a"
1'
#150000
0'
#155000
1`
0:
b1000001000000110001011 e
b1000001000000110001011 s
1f
b1000001000000110001011 v#
b1000001000000110001011 X
b1000001000000110001011 P
b1000001000000110001011 d
b1100101011110000110010101100011 c"
b1000 L$
b111 K$
b0 J$
b0 I$
b11100001000 9
b11100001000 s#
b1010000011000000000 N"
b110000000000000000000000000 M"
0H"
0G"
b101000001100000011100001000 E"
b101000001100000011100001000 B$
b110 N$
b101000001100000011100001000 D$
b101000001101111100111111000 C$
b101 M$
b101000001100000011100001000 I"
b1 w#
1Z
16
b10000 V
b10000 =
b10000 l#
b1000 \"
1o#
1l"
b101000001100000000000000000 k"
b11100001000 /
b11100001000 p
b11100001000 0$
b11100001000 @$
b101000001100000000000000000 0
b101000001100000000000000000 o
b101000001100000000000000000 ?$
b101000001100000000000000000 /$
0y"
b1110 Z"
bx L"
1\#
b1000 V"
b10 U"
b1110000100000010000000100010011 S"
b11100001000 R"
b1100001011001000110010001101001 Q"
0j"
b1000 -$
b10 ,$
b1110000100000010000000100010011 *$
b11100001000 )$
b1100001011001000110010001101001 ($
1'
#160000
0'
#165000
0`
0f
b101000001100000000000000000 ;
b101000001100000000000000000 t
1_
b101000001100000000000000000 ^"
b1000000100000001100000100 ]"
b110011001100101011101000110001101101000 c"
1`"
b101000001100000011100001000 _"
b0 w#
0Z
06
b1000001000000110001011 |#
b1000001000000110001011 u#
b10 u"
b1 t"
b11 r"
b1000000000000010 q"
0T#
0u
0o#
0m#
b1000000 \"
1i#
1j#
b11100010100 1$
1x"
b1111 Z"
b101000001100000011100001000 L"
1'
